^C:\USERS\TCARI\DOCUMENTS\GIT\THORSYNTH\THORSYNTH\BUILDS\VISUALSTUDIO2019\X64\DEBUG\VST3\INCLUDE_JUCE_AUDIO_PLUGIN_CLIENT_VST3.OBJ|C:\USERS\TCARI\DOCUMENTS\GIT\THORSYNTH\THORSYNTH\BUILDS\VISUALSTUDIO2019\X64\DEBUG\VST3\RESOURCES.RES
C:\USERS\TCARI\DOCUMENTS\GIT\THORSYNTH\THORSYNTH\BUILDS\VISUALSTUDIO2019\X64\DEBUG\VST3\THORSYNTH.ILK
C:\USERS\TCARI\DOCUMENTS\GIT\THORSYNTH\THORSYNTH\BUILDS\VISUALSTUDIO2019\X64\DEBUG\VST3\THORSYNTH.VST3
C:\USERS\TCARI\DOCUMENTS\GIT\THORSYNTH\THORSYNTH\BUILDS\VISUALSTUDIO2019\X64\DEBUG\VST3\THORSYNTH.PDB
